{
  "article": {
    "Success": true,
    "Data": {
      "Article": {
        "Id": 97,
        "Link": null,
        "TotalView": 0,
        "Title": "🌟 NGÀY THẦN TÀI 🌟 LỘC XÀI KHÔNG HẾT ⏰ 3/2/2020 - MÙNG 10 TẾT ",
        "Content": "\u003cdiv style=\u0022text-align: center;\u0022\u003e\u003cspan style=\u0022color:#cc0066;\u0022\u003e\u003cstrong\u003e🌟 NG\u0026Agrave;Y THẦN T\u0026Agrave;I 🌟\u003c/strong\u003e\u003c/span\u003e\u003c/div\u003e\r\n\r\n\u003cdiv style=\u0022text-align: center;\u0022\u003e\u003cstrong\u003eLỘC X\u0026Agrave;I KH\u0026Ocirc;NG HẾT\u003c/strong\u003e\u003c/div\u003e\r\n\r\n\u003cdiv style=\u0022text-align: center;\u0022\u003e\u003cspan style=\u0022color:#cc0066;\u0022\u003e\u003cstrong\u003e⏰ 3/2/2020 - M\u0026Ugrave;NG 10 TẾT ⏰\u003c/strong\u003e\u003c/span\u003e\u003c/div\u003e\r\n\r\n\u003cdiv\u003e\u0026nbsp;\u003c/div\u003e\r\n\r\n\u003cdiv\u003eDuy nhất M\u0026ugrave;ng 10, Thần T\u0026agrave;i g\u0026otilde; V\u0026iacute;. Nhanh tay mở V\u0026iacute; MoMo lắc Lu v\u0026agrave;o khung giờ V\u0026agrave;ng (9h - 23h59)\u0026nbsp;để c\u0026oacute; cơ hội rinh những phần qu\u0026agrave; si\u0026ecirc;u đỉnh từ Thần T\u0026agrave;i bạn nh\u0026eacute;!\u003c/div\u003e\r\n\r\n\u003cdiv\u003e\u0026nbsp;\u003c/div\u003e\r\n\r\n\u003cdiv\u003e\u003cstrong\u003eGIẢI THƯỞNG SI\u0026Ecirc;U ĐỈNH\u003c/strong\u003e\u003c/div\u003e\r\n\r\n\u003cdiv\u003e\u0026nbsp;\u003c/div\u003e\r\n\r\n\u003cdiv\u003e🎁 GIẢI ĐẶC BIỆT: Miễn ph\u0026iacute; 40 năm thanh to\u0026aacute;n điện, nước\u003c/div\u003e\r\n\r\n\u003cdiv\u003e🎁 GIẢI NHẤT: 86 Chỉ v\u0026agrave;ng PNJ\u003c/div\u003e\r\n\r\n\u003cdiv\u003e🎁 GIẢI NH\u0026Igrave;: 200 giải 1 Năm xem phim miễn ph\u0026iacute;/ 200 giải 1 năm nạp data 3G/4G miễn ph\u0026iacute;\u003c/div\u003e\r\n\r\n\u003cdiv\u003e🎁 GIẢI BA: 100.000 Voucher giảm gi\u0026aacute; 500.000đ mua v\u0026agrave;ng\u003c/div\u003e\r\n\r\n\u003cdiv\u003e🎁 H\u0026agrave;ng trăm ngh\u0026igrave;n thẻ qu\u0026agrave; nạp ĐT, thanh to\u0026aacute;n điện nước, xem phim...\u003c/div\u003e\r\n\r\n\u003cdiv\u003e\u0026nbsp;\u003c/div\u003e\r\n\r\n\u003cdiv\u003e\u003cstrong\u003eĐIỀU KIỆN V\u0026Agrave; ĐIỀU KHOẢN\u003c/strong\u003e\u003c/div\u003e\r\n\r\n\u003cdiv\u003e\u003cspan\u003e🔸 \u0026Aacute;p dụng cho khung giờ từ 9h - 23h59 ng\u0026agrave;y V\u0026iacute;a Thần T\u0026agrave;i (3/2/2020)\u003c/span\u003e\u003c/div\u003e\r\n\r\n\u003cdiv\u003e🔸 Gi\u0026aacute; trị của c\u0026aacute;c giải thưởng hiện vật được tạm t\u0026iacute;nh theo gi\u0026aacute; trị thị trường hiện tại, đ\u0026atilde; bao gồm thuế GTGT\u003c/div\u003e\r\n\r\n\u003cdiv\u003e🔸 C\u0026aacute;c giải thưởng kh\u0026ocirc;ng được quy đổi th\u0026agrave;nh tiền mặt (trừ tiền L\u0026igrave; X\u0026igrave; gửi trực tiếp v\u0026agrave;o V\u0026iacute; MoMo của người chơi tr\u0026uacute;ng giải)\u003c/div\u003e\r\n\r\n\u003cdiv\u003e🔸\u0026nbsp;\u003cspan id=\u0022docs-internal-guid-876abf3a-7fff-be0b-3abe-30f2e17cb27f\u0022\u003eMoMo c\u0026oacute; quyền từ chối trao thưởng cho kh\u0026aacute;ch h\u0026agrave;ng c\u0026oacute; dấu hiệu gian lận chương tr\u0026igrave;nh\u003c/span\u003e\u003c/div\u003e\r\n",
        "TermsConditionsContent": null,
        "ShortContent": null,
        "Avatar": "https://static.mservice.io/blogscontents/momo-upload-api-200130181428-637160048689816952.jpg",
        "RatingCount": 28,
        "RatingValue": 4.5,
        "AvatarFB": "https://static.mservice.io/default/s/no-image.png",
        "MetaTitle": "🌟 NGÀY THẦN TÀI 🌟 LỘC XÀI KHÔNG HẾT ⏰ 3/2/2020 - MÙNG 10 TẾT ",
        "MetaDesc": null,
        "MetaKeywords": "🌟 NGÀY THẦN TÀI 🌟 LỘC XÀI KHÔNG HẾT ⏰ 3/2/2020 - MÙNG 10 TẾT ",
        "ArticleCategoryName": "Thông báo",
        "ArticleCategorySlug": "thong-bao",
        "ArticleCategoryId": 17,
        "ServiceCategoryName": "",
        "TemplateType": 3,
        "ServiceCategorySlug": "",
        "ServiceCategoryId": null,
        "PublicDate": "Thứ 3, 28/01/2020",
        "ShowDate": "2020/01/28 13:30:00",
        "Type": 0,
        "CategoryGroupId": 0,
        "PromotionCode": null,
        "PromotionDescription": null,
        "PromotionChangePoint": null,
        "PromotionStartDate": null,
        "PromotionEndDate": null,
        "Button1Text": "THAM GIA NGAY",
        "Button1Link": "momo://?refId=lixi_2020_game",
        "Button2Text": null,
        "Button2Link": null,
        "MerchantLogo": "https://static.mservice.io/default/s/no-image.png",
        "IsShowTitle": false,
        "IsViewMoreContent": false,
        "IsViewMoreTermsConditionsContent": false
      },
      "ListArticleRelated": null,
      "UrlRewrite": null,
      "ListCategoryInGroup": null,
      "MainCategory": null
    }
  }
}
